…
Also, based on the criteria of hat being larger than (k+1)/n, 74 "unusual" observations were obtained. With regard to the Studentized residues, 82 observations with discrepancy outside the range of 2 to -2 were selected out. Moreover, 90 "odd" observations with significant influence of the suggested model were also found.

``` r
df_augment %>%
  filter (hat > 2* mean (hat))
```

    ## # A tibble: 74 × 10
    ##    biden female   age  educ   dem   rep gender     hat student   cooksd
    ##    <int>  <int> <int> <int> <int> <int>  <chr>   <dbl>   <dbl>    <dbl>
    ## 1     70      0    80    17     0     0   male 0.00504   0.569 4.09e-04
    ## 2     70      1    44     7     1     0 female 0.00496  -0.019 4.49e-07
    ## 3    100      1    64     1     1     0 female 0.01537   1.018 4.04e-03
    ## 4    100      1    76     3     1     0 female 0.01184   1.071 3.44e-03
    ## 5     60      1    84    16     0     0 female 0.00446  -0.178 3.55e-05
    ## 6     60      1    63     4     0     0 female 0.00933  -0.603 8.56e-04
    ## 7     85      0    18     8     1     0   male 0.00600   0.985 1.46e-03
    ## 8     70      0    79     9     1     0   male 0.00461   0.263 8.00e-05
    ## 9     50      1    22     9     0     0 female 0.00450  -0.768 6.66e-04
    ## 10    50      1    23     8     0     0 female 0.00538  -0.808 8.83e-04
    ## # ... with 64 more rows

``` r
df_augment %>%
  filter(abs(student) > 2)
```

    ## # A tibble: 82 × 10
    ##    biden female   age  educ   dem   rep gender     hat student  cooksd
    ##    <int>  <int> <int> <int> <int> <int>  <chr>   <dbl>   <dbl>   <dbl>
    ## 1      0      1    70    12     0     1 female 0.00204   -2.91 0.00429
    ## 2      0      0    45    12     0     1   male 0.00142   -2.59 0.00237
    ## 3      0      0    40    14     0     0   male 0.00136   -2.50 0.00213
    ## 4     15      0    62     8     0     1   male 0.00411   -2.13 0.00466
    ## 5     15      1    20    13     0     0 female 0.00260   -2.12 0.00294
    ## 6      0      1    38    14     1     0 female 0.00122   -2.77 0.00233
    ## 7      0      0    34    12     0     0   male 0.00178   -2.57 0.00293
    ## 8      0      0    21    13     0     1   male 0.00259   -2.51 0.00407
    ## 9     15      1    29    12     0     1 female 0.00198   -2.18 0.00235
    ## 10     0      0    36    13     0     1   male 0.00149   -2.53 0.00239
    ## # ... with 72 more rows

``` r
df_augment %>%
  filter(cooksd > 4 / (nrow(.) - (length(coef(biden_mod)) - 1) - 1))
```

    ## # A tibble: 90 × 10
    ##    biden female   age  educ   dem   rep gender     hat student  cooksd
    ##    <int>  <int> <int> <int> <int> <int>  <chr>   <dbl>   <dbl>   <dbl>
    ## 1      0      1    70    12     0     1 female 0.00204   -2.91 0.00429
    ## 2      0      0    45    12     0     1   male 0.00142   -2.59 0.00237
    ## 3     15      0    62     8     0     1   male 0.00411   -2.13 0.00466
    ## 4     15      1    20    13     0     0 female 0.00260   -2.12 0.00294
    ## 5    100      1    64     1     1     0 female 0.01537    1.02 0.00404
    ## 6    100      0    19    12     0     0   male 0.00304    1.78 0.00242
    ## 7    100      0    19    12     1     0   male 0.00304    1.78 0.00242
    ## 8      0      1    38    14     1     0 female 0.00122   -2.77 0.00233
    ## 9    100      1    76     3     1     0 female 0.01184    1.07 0.00344
    ## 10     0      0    34    12     0     0   male 0.00178   -2.57 0.00293
    ## # ... with 80 more rows
…
Then, I estimate the linear model from before on the new imputed datasets and extract the coeffecients and standard errors. To conduct inference, we need to average the estimates of the coefficients and the standard errors. `mi.meld()`. Here, we can observe some differences in the estimated parameters for the truncated dataset and the averaged imputed dataset.

``` r
models_imp <- data_frame(data = b.out$imputations) %>%
  mutate(model = map(data, ~ lm(biden ~ female + age + educ + I(educ^2) + I(educ^3),
                                data = .x)),
         coef = map(model, tidy)) %>%
  unnest(coef, .id = "id")

models_imp
```

    ## # A tibble: 30 × 6
    ##       id        term estimate std.error statistic  p.value
    ##    <chr>       <chr>    <dbl>     <dbl>     <dbl>    <dbl>
    ## 1   imp1 (Intercept)  63.9601   9.76424      6.55 7.04e-11
    ## 2   imp1      female   6.0017   0.96852      6.20 6.80e-10
    ## 3   imp1         age   0.0393   0.02825      1.39 1.64e-01
    ## 4   imp1        educ   3.1049   2.96864      1.05 2.96e-01
    ## 5   imp1   I(educ^2)  -0.5324   0.29397     -1.81 7.02e-02
    ## 6   imp1   I(educ^3)   0.0191   0.00906      2.11 3.54e-02
    ## 7   imp2 (Intercept)  47.7697   9.71569      4.92 9.42e-07
    ## 8   imp2      female   5.6731   0.96008      5.91 3.95e-09
    ## 9   imp2         age   0.0316   0.02797      1.13 2.58e-01
    ## 10  imp2        educ   6.5690   2.96736      2.21 2.69e-02
    ## # ... with 20 more rows
…
